<?xml version="1.0" encoding="UTF-8" standalone="no"?>
<svg
   xmlns:dc="http://purl.org/dc/elements/1.1/"
   xmlns:cc="http://creativecommons.org/ns#"
   xmlns:rdf="http://www.w3.org/1999/02/22-rdf-syntax-ns#"
   xmlns:svg="http://www.w3.org/2000/svg"
   xmlns="http://www.w3.org/2000/svg"
   xmlns:sodipodi="http://sodipodi.sourceforge.net/DTD/sodipodi-0.dtd"
   xmlns:inkscape="http://www.inkscape.org/namespaces/inkscape"
   id="e1d6a9e2-5d0a-4358-9625-bb79dd06fec3"
   data-name="Layer 1"
   width="680"
   height="674.00458"
   viewBox="0 0 680 674.00456"
   version="1.1"
   sodipodi:docname="solution.svg"
   inkscape:version="1.0.1 (c497b03c, 2020-09-10)">
  <metadata
     id="metadata5452">
    <rdf:RDF>
      <cc:Work
         rdf:about="">
        <dc:format>image/svg+xml</dc:format>
        <dc:type
           rdf:resource="http://purl.org/dc/dcmitype/StillImage" />
        <dc:title>solution_mindset</dc:title>
      </cc:Work>
    </rdf:RDF>
  </metadata>
  <defs
     id="defs5450" />
  <sodipodi:namedview
     pagecolor="#ffffff"
     bordercolor="#666666"
     borderopacity="1"
     objecttolerance="10"
     gridtolerance="10"
     guidetolerance="10"
     inkscape:pageopacity="0"
     inkscape:pageshadow="2"
     inkscape:window-width="1360"
     inkscape:window-height="823"
     id="namedview5448"
     showgrid="false"
     inkscape:zoom="0.60120321"
     inkscape:cx="436.39342"
     inkscape:cy="354.01489"
     inkscape:window-x="80"
     inkscape:window-y="49"
     inkscape:window-maximized="0"
     inkscape:current-layer="e1d6a9e2-5d0a-4358-9625-bb79dd06fec3" />
  <title
     id="title5385">solution_mindset</title>
  <circle
     cx="138.92464"
     cy="525.4491"
     r="138.92464"
     fill="#f2f2f2"
     id="circle5387" />
  <path
     d="m 408.97863,700.06688 a 293.53529,293.53529 0 1 1 207.55981,-85.97449 291.6131,291.6131 0 0 1 -207.55981,85.97449 z m 0,-584.82844 c -160.61958,0 -291.29359,130.67347 -291.29359,291.29359 0,160.62012 130.674,291.29413 291.29359,291.29413 160.61959,0 291.29359,-130.67401 291.29359,-291.29416 0,-160.62015 -130.67402,-291.29356 -291.29359,-291.29356 z"
     transform="translate(-102,-112.99772)"
     fill="#2f2e41"
     id="path5389" />
  <polygon
     points="315.201,467.019 156.779,387.808 154.049,386.443 162.271,222.003 305.334,120.05 306.913,121.037 454.975,213.781 459.908,386.443 459.875,386.46 "
     fill="#2c9481"
     id="polygon5391" />
  <polygon
     points="156.779,387.808 297.112,289.424 459.875,386.46 315.201,467.019 "
     opacity="0.3"
     id="polygon5393" />
  <polygon
     points="306.913,121.037 454.975,213.781 459.908,386.443 297.112,289.424 "
     opacity="0.1"
     id="polygon5395" />
  <polygon
     points="304.021,169.5 456.834,265.309 456.094,266.49 304.066,171.173 160.165,272.745 159.361,271.607 "
     fill="#f2f2f2"
     id="polygon5397" />
  <polygon
     points="300.505,229.743 300.882,229.957 456.963,318.417 456.275,319.629 300.571,231.382 157.361,328.61 156.579,327.458 "
     fill="#f2f2f2"
     id="polygon5399" />
  <polygon
     points="356.595,324.9 356.595,152.594 357.988,152.594 357.988,325.676 212.276,415.965 211.542,414.781 "
     fill="#f2f2f2"
     id="polygon5401" />
  <polygon
     points="408.138,355.645 408.138,184.879 409.531,184.879 409.531,356.416 269.209,444.428 268.469,443.248 "
     fill="#f2f2f2"
     id="polygon5403" />
  <polygon
     points="245.199,325.296 253.75,156.281 255.141,156.352 246.612,324.933 408.289,414.764 407.612,415.982 245.176,325.73 "
     fill="#f2f2f2"
     id="polygon5405" />
  <polygon
     points="195.92,359.841 205.388,190.742 206.779,190.82 197.337,359.471 357.154,443.221 356.507,444.455 195.895,360.288 "
     fill="#f2f2f2"
     id="polygon5407" />
  <circle
     cx="487.35657"
     cy="63.86079"
     r="56.018002"
     fill="#3f3d56"
     id="circle5409" />
</svg>
