<?xml version="1.0" encoding="UTF-8" standalone="no"?>
<svg
   xmlns:dc="http://purl.org/dc/elements/1.1/"
   xmlns:cc="http://creativecommons.org/ns#"
   xmlns:rdf="http://www.w3.org/1999/02/22-rdf-syntax-ns#"
   xmlns:svg="http://www.w3.org/2000/svg"
   xmlns="http://www.w3.org/2000/svg"
   xmlns:sodipodi="http://sodipodi.sourceforge.net/DTD/sodipodi-0.dtd"
   xmlns:inkscape="http://www.inkscape.org/namespaces/inkscape"
   id="b8c64dc2-e86a-49bc-92bf-164106d9e7fb"
   data-name="Layer 1"
   width="850"
   height="540"
   viewBox="0 0 887.87284 569.68008"
   version="1.1"
   sodipodi:docname="undraw_proud_coder_7ain.svg"
   inkscape:version="1.0.1 (c497b03c, 2020-09-10)">
  <metadata
     id="metadata4822">
    <rdf:RDF>
      <cc:Work
         rdf:about="">
        <dc:format>image/svg+xml</dc:format>
        <dc:type
           rdf:resource="http://purl.org/dc/dcmitype/StillImage" />
      </cc:Work>
    </rdf:RDF>
  </metadata>
  <defs
     id="defs4820" />
  <sodipodi:namedview
     pagecolor="#ffffff"
     bordercolor="#666666"
     borderopacity="1"
     objecttolerance="10"
     gridtolerance="10"
     guidetolerance="10"
     inkscape:pageopacity="0"
     inkscape:pageshadow="2"
     inkscape:window-width="1332"
     inkscape:window-height="782"
     id="namedview4818"
     showgrid="false"
     inkscape:zoom="1.1708326"
     inkscape:cx="272.26373"
     inkscape:cy="273.73682"
     inkscape:window-x="108"
     inkscape:window-y="49"
     inkscape:window-maximized="0"
     inkscape:current-layer="b8c64dc2-e86a-49bc-92bf-164106d9e7fb" />
  <title
     id="title4725">proud_coder</title>
  <rect
     x="276.41138"
     y="0.34664"
     width="611.46146"
     height="391.60712"
     fill="#e6e6e6"
     id="rect4727" />
  <rect
     x="293.89598"
     y="49.46394"
     width="576.49225"
     height="319.32231"
     fill="#fff"
     id="rect4729" />
  <rect
     x="276.1503"
     width="611.46146"
     height="25.97712"
     fill="#7697a8"
     id="rect4731" />
  <circle
     cx="295.45441"
     cy="13.28088"
     r="4.81466"
     fill="#fff"
     id="circle4733" />
  <circle
     cx="313.72965"
     cy="13.28088"
     r="4.81466"
     fill="#fff"
     id="circle4735" />
  <circle
     cx="332.00489"
     cy="13.28088"
     r="4.81466"
     fill="#fff"
     id="circle4737" />
  <path
     d="M863.33045,244.53256H675.64331a1.66587,1.66587,0,0,1,0-3.30318H863.33045a1.66587,1.66587,0,0,1,0,3.30318Z"
     transform="translate(-156.06358 -165.15996)"
     fill="#ccc"
     id="path4739" />
  <path
     d="M733.2818,262.7H613.94986a1.66587,1.66587,0,0,1,0-3.30317H733.2818a1.66587,1.66587,0,0,1,0,3.30317Z"
     transform="translate(-156.06358 -165.15996)"
     fill="#ccc"
     id="path4741" />
  <path
     d="M863.33045,263.03033H743.9985a1.66587,1.66587,0,0,1,0-3.30317h119.332a1.66587,1.66587,0,0,1,0,3.30317Z"
     transform="translate(-156.06358 -165.15996)"
     fill="#ccc"
     id="path4743" />
  <path
     d="M733.57144,280.86747H614.2395a1.66587,1.66587,0,0,1,0-3.30317H733.57144a1.66587,1.66587,0,0,1,0,3.30317Z"
     transform="translate(-156.06358 -165.15996)"
     fill="#ccc"
     id="path4745" />
  <path
     d="M733.86108,299.03493H614.52914a1.66587,1.66587,0,0,1,0-3.30317H733.86108a1.66587,1.66587,0,0,1,0,3.30317Z"
     transform="translate(-156.06358 -165.15996)"
     fill="#ccc"
     id="path4747" />
  <path
     d="M788.02388,280.86747H753.84629a1.66587,1.66587,0,0,1,0-3.30317h34.17759a1.66587,1.66587,0,0,1,0,3.30317Z"
     transform="translate(-156.06358 -165.15996)"
     fill="#ccc"
     id="path4749" />
  <path
     d="M788.02388,298.70461H753.84629a1.66587,1.66587,0,0,1,0-3.30317h34.17759a1.66587,1.66587,0,0,1,0,3.30317Z"
     transform="translate(-156.06358 -165.15996)"
     fill="#ccc"
     id="path4751" />
  <path
     d="M845.37273,298.70461h-34.1776a1.66587,1.66587,0,0,1,0-3.30317h34.1776a1.66587,1.66587,0,0,1,0,3.30317Z"
     transform="translate(-156.06358 -165.15996)"
     fill="#ccc"
     id="path4753" />
  <path
     d="M647.25853,244.53256h-34.1776a1.66587,1.66587,0,0,1,0-3.30318h34.1776a1.66587,1.66587,0,0,1,0,3.30318Z"
     transform="translate(-156.06358 -165.15996)"
     fill="#ccc"
     id="path4755" />
  <path
     d="M732.84734,452.83835H613.51539a1.66587,1.66587,0,0,1,0-3.30317h119.332a1.66587,1.66587,0,0,1,0,3.30317Z"
     transform="translate(-156.06358 -165.15996)"
     fill="#ccc"
     id="path4757" />
  <path
     d="M732.26806,489.17327H612.93611a1.66587,1.66587,0,0,1,0-3.30318h119.332a1.66587,1.66587,0,0,1,0,3.30318Z"
     transform="translate(-156.06358 -165.15996)"
     fill="#ccc"
     id="path4759" />
  <path
     d="M732.5577,507.34073H613.22575a1.66587,1.66587,0,0,1,0-3.30318h119.332a1.66587,1.66587,0,0,1,0,3.30318Z"
     transform="translate(-156.06358 -165.15996)"
     fill="#ccc"
     id="path4761" />
  <path
     d="M783.53445,489.50359H749.35686a1.66587,1.66587,0,0,1,0-3.30318h34.17759a1.66587,1.66587,0,0,1,0,3.30318Z"
     transform="translate(-156.06358 -165.15996)"
     fill="#ccc"
     id="path4763" />
  <path
     d="M783.53445,507.34073H749.35686a1.66587,1.66587,0,0,1,0-3.30318h34.17759a1.66587,1.66587,0,0,1,0,3.30318Z"
     transform="translate(-156.06358 -165.15996)"
     fill="#ccc"
     id="path4765" />
  <path
     d="M840.8833,489.50359H806.7057a1.66587,1.66587,0,0,1,0-3.30318h34.1776a1.66587,1.66587,0,0,1,0,3.30318Z"
     transform="translate(-156.06358 -165.15996)"
     fill="#ccc"
     id="path4767" />
  <path
     d="M863.47527,471.00581H675.78813a1.66587,1.66587,0,0,1,0-3.30317H863.47527a1.66587,1.66587,0,0,1,0,3.30317Z"
     transform="translate(-156.06358 -165.15996)"
     fill="#ccc"
     id="path4769" />
  <path
     d="M647.40335,471.00581h-34.1776a1.66587,1.66587,0,0,1,0-3.30317h34.1776a1.66587,1.66587,0,0,1,0,3.30317Z"
     transform="translate(-156.06358 -165.15996)"
     fill="#ccc"
     id="path4771" />
  <polygon
     points="547.965 163.221 501.622 208.985 547.965 254.748 558.392 244.321 523.345 209.274 558.681 173.938 547.965 163.221"
     fill="#e6e6e6"
     id="polygon4773" />
  <polygon
     points="616.32 163.221 662.662 208.985 616.32 254.748 605.893 244.321 640.939 209.274 605.603 173.938 616.32 163.221"
     fill="#e6e6e6"
     id="polygon4775" />
  <polygon
     points="547.965 163.221 501.622 208.985 547.965 254.748 558.392 244.321 523.345 209.274 558.681 173.938 547.965 163.221"
     fill="#7697a8"
     id="polygon4777" />
  <polygon
     points="616.32 163.221 662.662 208.985 616.32 254.748 605.893 244.321 640.939 209.274 605.603 173.938 616.32 163.221"
     fill="#7697a8"
     id="polygon4779" />
  <path
     d="M626.6665,711.1954c14.41965,19.311,44.352,21.34353,44.352,21.34353s6.55352-29.2768-7.86613-48.5878-44.352-21.34353-44.352-21.34353S612.24685,691.88439,626.6665,711.1954Z"
     transform="translate(-156.06358 -165.15996)"
     fill="#d9d9d9"
     id="path4781" />
  <path
     d="M700.12323,718.455c-9.5151,12.74275-29.26658,14.08395-29.26658,14.08395s-4.32447-19.31887,5.19062-32.06162,29.26658-14.084,29.26658-14.084S709.63832,705.71222,700.12323,718.455Z"
     transform="translate(-156.06358 -165.15996)"
     fill="#d9d9d9"
     id="path4783" />
  <rect
     y="567.37896"
     width="702.90551"
     height="2.24072"
     fill="#3f3d56"
     id="rect4815" />
</svg>
