<?xml version="1.0" encoding="UTF-8" standalone="no"?>
<svg
   xmlns:dc="http://purl.org/dc/elements/1.1/"
   xmlns:cc="http://creativecommons.org/ns#"
   xmlns:rdf="http://www.w3.org/1999/02/22-rdf-syntax-ns#"
   xmlns:svg="http://www.w3.org/2000/svg"
   xmlns="http://www.w3.org/2000/svg"
   xmlns:sodipodi="http://sodipodi.sourceforge.net/DTD/sodipodi-0.dtd"
   xmlns:inkscape="http://www.inkscape.org/namespaces/inkscape"
   fill="#000000"
   viewBox="0 0 30 30"
   width="64px"
   height="64px"
   version="1.1"
   id="svg9720"
   sodipodi:docname="linkedin.svg"
   inkscape:version="1.0.1 (c497b03c, 2020-09-10)">
  <metadata
     id="metadata9726">
    <rdf:RDF>
      <cc:Work
         rdf:about="">
        <dc:format>image/svg+xml</dc:format>
        <dc:type
           rdf:resource="http://purl.org/dc/dcmitype/StillImage" />
        <dc:title />
      </cc:Work>
    </rdf:RDF>
  </metadata>
  <defs
     id="defs9724" />
  <sodipodi:namedview
     pagecolor="#ffffff"
     bordercolor="#666666"
     borderopacity="1"
     objecttolerance="10"
     gridtolerance="10"
     guidetolerance="10"
     inkscape:pageopacity="0"
     inkscape:pageshadow="2"
     inkscape:window-width="1440"
     inkscape:window-height="847"
     id="namedview9722"
     showgrid="false"
     inkscape:zoom="5.3935629"
     inkscape:cx="50.650099"
     inkscape:cy="34.670883"
     inkscape:window-x="0"
     inkscape:window-y="25"
     inkscape:window-maximized="1"
     inkscape:current-layer="svg9720"
     inkscape:document-rotation="0" />
  <path
     d="M 7.0151735,28.321441 H 0.8120141 V 9.7119629 H 7.0151735 Z M 3.9148344,7.2306994 c -1.7157938,0 -3.1028203,-1.3907484 -3.1028203,-3.1028204 0,-1.7120719 1.3895077,-3.1003391 3.1028203,-3.1003391 1.7095908,0 3.1003391,1.3907483 3.1003391,3.1003391 0,1.712072 -1.3907483,3.1028204 -3.1003391,3.1028204 z M 29.346547,28.321441 H 23.38283 v -9.056613 c 0,-2.15994 -0.04093,-4.937715 -3.100339,-4.937715 -3.105302,0 -3.582945,2.352238 -3.582945,4.781396 v 9.212932 H 10.73707 V 9.6983158 h 5.724275 v 2.5445362 h 0.08064 c 0.796485,-1.463945 2.743038,-3.0072914 5.646115,-3.0072914 6.041878,0 7.158446,3.8571254 7.158446,8.8717584 0,0 0,10.214122 0,10.214122 z"
     id="path9718"
     style="stroke-width:1.24063" />
</svg>
