<?xml version="1.0" encoding="UTF-8" standalone="no"?>
<svg
   xmlns:dc="http://purl.org/dc/elements/1.1/"
   xmlns:cc="http://creativecommons.org/ns#"
   xmlns:rdf="http://www.w3.org/1999/02/22-rdf-syntax-ns#"
   xmlns:svg="http://www.w3.org/2000/svg"
   xmlns="http://www.w3.org/2000/svg"
   xmlns:sodipodi="http://sodipodi.sourceforge.net/DTD/sodipodi-0.dtd"
   xmlns:inkscape="http://www.inkscape.org/namespaces/inkscape"
   aria-hidden="true"
   role="img"
   width="64px"
   height="64px"
   preserveAspectRatio="xMidYMid meet"
   viewBox="0 0 24 24"
   version="1.1"
   id="svg12014"
   sodipodi:docname="polywork.svg"
   inkscape:version="1.0.1 (c497b03c, 2020-09-10)">
  <metadata
     id="metadata12020">
    <rdf:RDF>
      <cc:Work
         rdf:about="">
        <dc:format>image/svg+xml</dc:format>
        <dc:type
           rdf:resource="http://purl.org/dc/dcmitype/StillImage" />
        <dc:title></dc:title>
      </cc:Work>
    </rdf:RDF>
  </metadata>
  <defs
     id="defs12018" />
  <sodipodi:namedview
     pagecolor="#ffffff"
     bordercolor="#666666"
     borderopacity="1"
     objecttolerance="10"
     gridtolerance="10"
     guidetolerance="10"
     inkscape:pageopacity="0"
     inkscape:pageshadow="2"
     inkscape:window-width="1440"
     inkscape:window-height="847"
     id="namedview12016"
     showgrid="false"
     inkscape:zoom="5.6816765"
     inkscape:cx="35.5432"
     inkscape:cy="31.56153"
     inkscape:window-x="0"
     inkscape:window-y="25"
     inkscape:window-maximized="1"
     inkscape:current-layer="svg12014" />
  <path
     d="M 18.603174,1.0560255 H 5.5288284 A 4.4636277,4.4636277 0 0 0 1.0560255,5.5288284 V 18.603174 c 0,2.477246 1.9955582,4.472802 4.4728029,4.472802 h 6.0554856 c 2.477247,0 4.472802,-1.995556 4.472802,-4.472802 v -2.270808 h 2.546058 c 2.477246,0 4.472802,-1.995556 4.472802,-4.472802 V 5.5288284 c 0,-2.4772447 -1.995556,-4.4728029 -4.472802,-4.4728029 z m -2.408433,1.1698097 h 2.408433 a 3.3029925,3.3029925 0 0 1 3.302992,3.3029932 v 2.4772441 h -5.711425 z m -1.307435,7.087672 V 15.231369 H 9.1758827 V 9.3135072 Z M 9.1758827,2.1570229 H 14.887306 V 8.0060725 H 9.1758827 Z m -6.9500475,3.302993 a 3.3029925,3.3029925 0 0 1 3.3029932,-3.302993 h 2.4084318 v 5.8490496 h -5.711425 z m 5.711425,3.8534913 V 15.231369 H 2.1570229 V 9.3135072 Z m 0,12.5926588 H 5.4600159 a 3.3029925,3.3029925 0 0 1 -3.302993,-3.302992 v -2.133183 h 5.7802373 z m 6.9500458,-3.23418 a 3.3029925,3.3029925 0 0 1 -3.302992,3.302993 H 9.1758827 v -5.436175 h 5.7114233 z m 7.01886,-6.74361 a 3.3029925,3.3029925 0 0 1 -3.302992,3.302993 H 16.194741 V 9.3135072 h 5.711425 z"
     fill="currentColor"
     id="path12012"
     style="stroke-width:0.9175" />
</svg>
