<?xml version="1.0" encoding="UTF-8" standalone="no"?>
<!-- Created with Inkscape (http://www.inkscape.org/) -->

<svg
   width="115px"
   height="40px"
   viewBox="0 0 170 60"
   version="1.1"
   id="svg5"
   sodipodi:docname="title-black.svg"
   inkscape:version="1.2 (dc2aeda, 2022-05-15)"
   xmlns:inkscape="http://www.inkscape.org/namespaces/inkscape"
   xmlns:sodipodi="http://sodipodi.sourceforge.net/DTD/sodipodi-0.dtd"
   xmlns="http://www.w3.org/2000/svg"
   xmlns:svg="http://www.w3.org/2000/svg">
  <sodipodi:namedview
     id="namedview7"
     pagecolor="#ffffff"
     bordercolor="#000000"
     borderopacity="0.25"
     inkscape:showpageshadow="2"
     inkscape:pageopacity="0.0"
     inkscape:pagecheckerboard="0"
     inkscape:deskcolor="#d1d1d1"
     inkscape:document-units="mm"
     showgrid="false"
     inkscape:zoom="1.2797295"
     inkscape:cx="218.40553"
     inkscape:cy="167.61354"
     inkscape:window-width="1694"
     inkscape:window-height="807"
     inkscape:window-x="0"
     inkscape:window-y="38"
     inkscape:window-maximized="0"
     inkscape:current-layer="layer1" />
  <defs
     id="defs2">
    <linearGradient
       id="linearGradient6173"
       inkscape:swatch="solid">
      <stop
         style="stop-color:#1f6f62;stop-opacity:1;"
         offset="0"
         id="stop6171" />
    </linearGradient>
    <rect
       x="14.633113"
       y="14.633113"
       width="662.57759"
       height="133.14309"
       id="rect63" />
  </defs>
  <g
     inkscape:label="Layer 1"
     inkscape:groupmode="layer"
     id="layer1">
    <g
       aria-label="Shane Hull"
       transform="matrix(0.28035572,0,0,0.29259043,-5.1967294,10.018775)"
       id="titlePaths"
       style="font-size:105.333px;font-family:Nunito;-inkscape-font-specification:Nunito;white-space:pre;shape-inside:url(#rect63);display:inline">
      <path
         d="m 51.288697,112.08001 q -6.741312,0 -12.850626,-2.10666 -6.109314,-2.10666 -10.638633,-5.89865 -4.529319,-3.79199 -6.635979,-8.742639 -1.05333,-2.211993 0,-4.107987 1.158663,-1.895994 3.791988,-2.422659 1.895994,-0.421332 3.686655,0.631998 1.895994,0.947997 2.843991,2.949324 1.263996,2.633325 4.107987,4.845318 2.949324,2.211993 7.057311,3.581325 4.107987,1.36933 8.637306,1.36933 5.055984,0 9.269304,-1.58 4.318653,-1.579994 6.951978,-4.529318 2.633325,-3.054657 2.633325,-7.478643 0,-5.582649 -4.423986,-10.006635 Q 61.400665,74.160128 51.39403,73.106798 38.332738,71.842802 30.854095,65.417489 23.375452,58.992176 23.375452,49.512206 q 0,-6.951978 3.897321,-11.797296 3.897321,-4.845318 10.5333,-7.37331 6.741312,-2.527992 14.957286,-2.527992 6.425313,0 11.165298,1.790661 4.845318,1.790661 8.42664,4.950651 3.581322,3.15999 6.214647,7.478643 1.474662,2.317326 1.158663,4.423986 -0.210666,2.001327 -2.001327,3.15999 -2.001327,1.263996 -4.318653,0.526665 -2.317326,-0.737331 -3.475989,-2.738658 -1.685328,-3.054657 -4.107987,-5.161317 -2.422659,-2.10666 -5.687982,-3.265323 -3.265323,-1.263996 -7.689309,-1.263996 -7.794642,-0.105333 -13.061292,2.949324 -5.26665,2.949324 -5.26665,9.163971 0,3.15999 1.579995,6.109314 1.685328,2.843991 6.003981,4.950651 4.423986,2.10666 12.63996,2.949324 12.534627,1.263996 19.486605,7.689309 7.057311,6.31998 7.057311,16.747947 0,6.003981 -2.527992,10.427967 -2.422659,4.423983 -6.635979,7.478643 -4.107987,2.94932 -9.47997,4.42399 -5.26665,1.47466 -10.954632,1.47466 z"
         style="font-weight:bold;font-family:Comfortaa;-inkscape-font-specification:'Comfortaa Bold'"
         id="path10577" />
      <path
         d="m 101.95384,90.065411 q -2.317322,0 -3.897317,-1.474662 -1.474662,-1.579995 -1.474662,-3.897321 v -50.55984 q 0,-2.422659 1.474662,-3.897321 1.579995,-1.474662 3.897317,-1.474662 2.42266,0 3.89732,1.474662 1.47467,1.474662 1.47467,3.897321 v 50.55984 q 0,2.317326 -1.47467,3.897321 -1.47466,1.474662 -3.89732,1.474662 z m 43.29187,21.066599 q -2.31733,0 -3.89732,-1.47466 -1.47467,-1.58 -1.47467,-3.89732 V 79.84811 q 0,-6.003981 -2.21199,-9.795969 -2.21199,-3.791988 -6.00398,-5.582649 -3.68666,-1.895994 -8.53197,-1.895994 -4.42399,0 -8.00531,1.790661 -3.58132,1.790661 -5.68798,4.845318 -2.10666,2.949324 -2.10666,6.846645 h -6.63598 q 0,-6.635979 3.15999,-11.797296 3.26532,-5.26665 8.84797,-8.321307 5.58265,-3.054657 12.53463,-3.054657 7.26797,0 12.95596,3.15999 5.79331,3.054657 9.05863,9.058638 3.37066,6.003981 3.37066,14.74662 v 25.91192 q 0,2.31732 -1.58,3.89732 -1.47466,1.47466 -3.79198,1.47466 z m -43.29187,0 q -2.317322,0 -3.897317,-1.47466 -1.474662,-1.58 -1.474662,-3.89732 V 58.78151 q 0,-2.422659 1.474662,-3.897321 1.579995,-1.474662 3.897317,-1.474662 2.42266,0 3.89732,1.474662 1.47467,1.474662 1.47467,3.897321 v 46.97852 q 0,2.31732 -1.47467,3.89732 -1.47466,1.47466 -3.89732,1.47466 z"
         style="font-weight:bold;font-family:Comfortaa;-inkscape-font-specification:'Comfortaa Bold'"
         id="path10579" />
      <path
         d="m 192.54008,111.44801 q -7.68931,0 -13.79862,-3.79199 -6.10931,-3.89732 -9.69064,-10.427965 -3.47598,-6.635979 -3.47598,-14.957286 0,-8.321307 3.79198,-14.957286 3.89732,-6.635979 10.42797,-10.427967 6.63598,-3.897321 14.85195,-3.897321 8.21598,0 14.74662,3.897321 6.53065,3.791988 10.32264,10.427967 3.89732,6.635979 3.89732,14.957286 h -4.10799 q 0,8.321307 -3.58132,14.957286 -3.47599,6.530645 -9.5853,10.427965 -6.10932,3.79199 -13.79863,3.79199 z m 2.10666,-9.47997 q 5.37199,0 9.58531,-2.527992 4.21332,-2.633325 6.63598,-7.057311 2.42265,-4.529319 2.42265,-10.111968 0,-5.687982 -2.42265,-10.111968 -2.42266,-4.529319 -6.63598,-7.057311 -4.21332,-2.633325 -9.58531,-2.633325 -5.26665,0 -9.5853,2.633325 -4.21332,2.527992 -6.74131,7.057311 -2.42266,4.423986 -2.42266,10.111968 0,5.582649 2.42266,10.111968 2.52799,4.423986 6.74131,7.057311 4.31865,2.527992 9.5853,2.527992 z m 23.5946,9.16397 q -2.31733,0 -3.89733,-1.47466 -1.47466,-1.58 -1.47466,-3.89732 V 89.644079 l 2.00133,-11.165298 8.74264,3.791988 v 23.489261 q 0,2.31732 -1.58,3.89732 -1.47466,1.47466 -3.79198,1.47466 z"
         style="font-weight:bold;font-family:Comfortaa;-inkscape-font-specification:'Comfortaa Bold'"
         id="path10581" />
      <path
         d="m 288.28771,111.13201 q -2.31733,0 -3.89732,-1.47466 -1.47467,-1.58 -1.47467,-3.89732 V 79.84811 q 0,-6.003981 -2.21199,-9.795969 -2.21199,-3.791988 -6.00398,-5.582649 -3.68666,-1.895994 -8.53197,-1.895994 -4.42399,0 -8.00531,1.790661 -3.58132,1.790661 -5.68798,4.845318 -2.10666,2.949324 -2.10666,6.846645 h -6.63598 q 0,-6.635979 3.15999,-11.797296 3.26532,-5.26665 8.84797,-8.321307 5.58265,-3.054657 12.53463,-3.054657 7.26797,0 12.95596,3.15999 5.79331,3.054657 9.05863,9.058638 3.37066,6.003981 3.37066,14.74662 v 25.91192 q 0,2.31732 -1.58,3.89732 -1.47466,1.47466 -3.79198,1.47466 z m -43.29187,0 q -2.31732,0 -3.89732,-1.47466 -1.47466,-1.58 -1.47466,-3.89732 V 58.78151 q 0,-2.422659 1.47466,-3.897321 1.58,-1.474662 3.89732,-1.474662 2.42266,0 3.89732,1.474662 1.47467,1.474662 1.47467,3.897321 v 46.97852 q 0,2.31732 -1.47467,3.89732 -1.47466,1.47466 -3.89732,1.47466 z"
         style="font-weight:bold;font-family:Comfortaa;-inkscape-font-specification:'Comfortaa Bold'"
         id="path10583" />
      <path
         d="m 338.53145,111.44801 q -8.74264,0 -15.58929,-3.68665 -6.74131,-3.79199 -10.63863,-10.322639 -3.79199,-6.635979 -3.79199,-15.167952 0,-8.637306 3.58132,-15.167952 3.68666,-6.635979 10.11197,-10.322634 6.42532,-3.791988 14.74662,-3.791988 8.21598,0 14.11462,3.686655 5.89865,3.581322 8.95331,10.006635 3.15999,6.31998 3.15999,14.641287 0,2.001327 -1.36933,3.370656 -1.36933,1.263996 -3.47599,1.263996 h -42.4492 v -8.42664 h 42.1332 l -4.31865,2.949324 q -0.10533,-5.26665 -2.10666,-9.374637 -2.00133,-4.21332 -5.68798,-6.635979 -3.68666,-2.422659 -8.95331,-2.422659 -6.00398,0 -10.32263,2.633325 -4.21332,2.633325 -6.42531,7.267977 -2.212,4.529319 -2.212,10.322634 0,5.793315 2.63333,10.322634 2.63332,4.529319 7.26797,7.162644 4.63466,2.633323 10.63864,2.633323 3.26532,0 6.63598,-1.15866 3.47599,-1.263997 5.58265,-2.843992 1.57999,-1.158663 3.37065,-1.158663 1.896,-0.105333 3.26532,1.05333 1.79067,1.579995 1.896,3.475985 0.10533,1.896 -1.68533,3.26533 -3.58132,2.84399 -8.9533,4.63465 -5.26665,1.79066 -10.11197,1.79066 z"
         style="font-weight:bold;font-family:Comfortaa;-inkscape-font-specification:'Comfortaa Bold'"
         id="path10585" />
      <path
         d="m 414.26562,111.02668 q -2.31733,0 -3.89732,-1.58 -1.58,-1.57999 -1.58,-3.89732 V 34.238921 q 0,-2.422659 1.58,-3.897321 1.57999,-1.579995 3.89732,-1.579995 2.42266,0 3.89732,1.579995 1.58,1.474662 1.58,3.897321 v 30.230571 h 48.87451 V 34.238921 q 0,-2.422659 1.57999,-3.897321 1.58,-1.579995 3.89733,-1.579995 2.42265,0 3.89732,1.579995 1.47466,1.474662 1.47466,3.897321 v 71.310439 q 0,2.31733 -1.47466,3.89732 -1.47467,1.58 -3.89732,1.58 -2.31733,0 -3.89733,-1.58 -1.57999,-1.57999 -1.57999,-3.89732 V 74.160128 h -48.87451 v 31.389232 q 0,2.31733 -1.58,3.89732 -1.47466,1.58 -3.89732,1.58 z"
         style="font-weight:bold;font-family:Comfortaa;-inkscape-font-specification:'Comfortaa Bold'"
         id="path10587" />
      <path
         d="m 523.70644,111.55334 q -7.26798,0 -13.06129,-3.05465 -5.68799,-3.15999 -9.05864,-9.163975 -3.26533,-6.003981 -3.26533,-14.74662 V 58.676177 q 0,-2.317326 1.47467,-3.791988 1.57999,-1.579995 3.89732,-1.579995 2.31732,0 3.79199,1.579995 1.57999,1.474662 1.57999,3.791988 v 25.911918 q 0,5.898648 2.21199,9.795969 2.212,3.791988 6.00398,5.687986 3.79199,1.79066 8.53198,1.79066 4.52932,0 8.00531,-1.79066 3.58132,-1.790665 5.68798,-4.845322 2.10666,-3.054657 2.10666,-6.846645 h 6.63598 q 0,6.530646 -3.26533,11.797297 -3.15999,5.26665 -8.74263,8.32131 -5.47732,3.05465 -12.53463,3.05465 z m 23.27859,-0.52666 q -2.31732,0 -3.89732,-1.47466 -1.47466,-1.58 -1.47466,-3.89732 V 58.676177 q 0,-2.422659 1.47466,-3.897321 1.58,-1.474662 3.89732,-1.474662 2.42266,0 3.89732,1.474662 1.47466,1.474662 1.47466,3.897321 V 105.6547 q 0,2.31732 -1.47466,3.89732 -1.47466,1.47466 -3.89732,1.47466 z"
         style="font-weight:bold;font-family:Comfortaa;-inkscape-font-specification:'Comfortaa Bold'"
         id="path10589" />
      <path
         d="m 585.01017,111.02668 q -4.63465,0 -8.21597,-2.52799 -3.58132,-2.528 -5.58265,-6.84665 -2.00133,-4.423985 -2.00133,-10.111967 V 34.028255 q 0,-2.317326 1.47467,-3.791988 1.47466,-1.474662 3.79198,-1.474662 2.31733,0 3.79199,1.474662 1.47466,1.474662 1.47466,3.791988 v 57.511818 q 0,3.897321 1.47467,6.425313 1.47466,2.527994 3.79198,2.527994 h 2.63333 q 2.10666,0 3.37066,1.47466 1.36932,1.47466 1.36932,3.79199 0,2.31732 -2.00132,3.79199 -2.00133,1.47466 -5.16132,1.47466 z"
         style="font-weight:bold;font-family:Comfortaa;-inkscape-font-specification:'Comfortaa Bold'"
         id="path10591" />
      <path
         d="m 616.60997,111.02668 q -4.63466,0 -8.21598,-2.52799 -3.58132,-2.528 -5.58265,-6.84665 -2.00132,-4.423985 -2.00132,-10.111967 V 34.028255 q 0,-2.317326 1.47466,-3.791988 1.47466,-1.474662 3.79199,-1.474662 2.31732,0 3.79198,1.474662 1.47467,1.474662 1.47467,3.791988 v 57.511818 q 0,3.897321 1.47466,6.425313 1.47466,2.527994 3.79199,2.527994 h 2.63332 q 2.10666,0 3.37066,1.47466 1.36933,1.47466 1.36933,3.79199 0,2.31732 -2.00133,3.79199 -2.00133,1.47466 -5.16132,1.47466 z"
         style="font-weight:bold;font-family:Comfortaa;-inkscape-font-specification:'Comfortaa Bold'"
         id="path10593" />
    </g>
  </g>
</svg>
