<?xml version="1.0" encoding="UTF-8" standalone="no"?>
<svg
   xmlns:dc="http://purl.org/dc/elements/1.1/"
   xmlns:cc="http://creativecommons.org/ns#"
   xmlns:rdf="http://www.w3.org/1999/02/22-rdf-syntax-ns#"
   xmlns:svg="http://www.w3.org/2000/svg"
   xmlns="http://www.w3.org/2000/svg"
   xmlns:sodipodi="http://sodipodi.sourceforge.net/DTD/sodipodi-0.dtd"
   xmlns:inkscape="http://www.inkscape.org/namespaces/inkscape"
   fill="#000000"
   viewBox="0 0 30 30"
   width="64px"
   height="64px"
   version="1.1"
   id="svg11443"
   sodipodi:docname="twitter.svg"
   inkscape:version="1.0.1 (c497b03c, 2020-09-10)">
  <metadata
     id="metadata11449">
    <rdf:RDF>
      <cc:Work
         rdf:about="">
        <dc:format>image/svg+xml</dc:format>
        <dc:type
           rdf:resource="http://purl.org/dc/dcmitype/StillImage" />
        <dc:title></dc:title>
      </cc:Work>
    </rdf:RDF>
  </metadata>
  <defs
     id="defs11447" />
  <sodipodi:namedview
     pagecolor="#ffffff"
     bordercolor="#666666"
     borderopacity="1"
     objecttolerance="10"
     gridtolerance="10"
     guidetolerance="10"
     inkscape:pageopacity="0"
     inkscape:pageshadow="2"
     inkscape:window-width="1440"
     inkscape:window-height="847"
     id="namedview11445"
     showgrid="false"
     inkscape:zoom="6.5985071"
     inkscape:cx="29.162587"
     inkscape:cy="29.642129"
     inkscape:window-x="0"
     inkscape:window-y="25"
     inkscape:window-maximized="1"
     inkscape:current-layer="svg11443" />
  <path
     d="m 29.420776,6.422065 c -1.058972,0.4702855 -2.19651,0.78676 -3.390482,0.9295054 1.219423,-0.7303257 2.154461,-1.8866747 2.59487,-3.2654411 -1.139751,0.6761046 -2.403436,1.1674146 -3.749006,1.4329876 -1.076677,-1.1474966 -2.610361,-1.8645437 -4.307815,-1.8645437 -3.259908,0 -5.902359,2.6435577 -5.902359,5.90236 0,0.4625388 0.05311,0.9140128 0.152704,1.3444628 C 9.9133339,10.655741 5.5645762,8.3054201 2.6521258,4.7334634 2.145324,5.6054281 1.8543003,6.6190316 1.8543003,7.7023481 c 0,2.0471251 1.0412674,3.8541279 2.6247463,4.9119939 -0.9671283,-0.03098 -1.8778223,-0.296557 -2.6734347,-0.738072 0,0.02545 0,0.04869 0,0.07414 0,2.860442 2.0338465,5.246173 4.734945,5.787278 -0.4946297,0.135 -1.0169232,0.206926 -1.5558151,0.206926 -0.379548,0 -0.7502436,-0.03762 -1.1098737,-0.105123 0.7513502,2.344788 2.9312618,4.052201 5.5139588,4.099783 -2.019461,1.583479 -4.5645354,2.527369 -7.3309206,2.527369 -0.4758183,0 -0.9461038,-0.02766 -1.40864343,-0.08299 2.61257423,1.674216 5.71424543,2.651304 9.04829303,2.651304 10.8575091,0 16.7930651,-8.994072 16.7930651,-16.794172 0,-0.2556136 -0.0055,-0.5101208 -0.0166,-0.7635218 1.154135,-0.8332356 2.155567,-1.8722899 2.946753,-3.0551962 z"
     id="path11441"
     style="stroke-width:1.10655" />
</svg>
